/home/ahextech/subbarao/WorkSpace/Element_Maven/element_maven/Element/src/test/java/com/element/admin/integration/manage/DataCurationTest.java
/home/ahextech/subbarao/WorkSpace/Element_Maven/element_maven/Element/src/test/java/com/element/admin/integration/aml/AmlPage.java
/home/ahextech/subbarao/WorkSpace/Element_Maven/element_maven/Element/src/test/java/com/element/admin/integration/manage/QuestionnaireBuilderTest.java
/home/ahextech/subbarao/WorkSpace/Element_Maven/element_maven/Element/src/test/java/com/element/admin/integration/predict/LeadGenerationTest.java
/home/ahextech/subbarao/WorkSpace/Element_Maven/element_maven/Element/src/test/java/com/element/admin/integration/common/CommonTest.java
/home/ahextech/subbarao/WorkSpace/Element_Maven/element_maven/Element/src/test/java/com/element/admin/integration/manage/BPMTest.java
/home/ahextech/subbarao/WorkSpace/Element_Maven/element_maven/Element/src/test/java/com/element/admin/integration/manage/ManagePage.java
/home/ahextech/subbarao/WorkSpace/Element_Maven/element_maven/Element/src/test/java/com/element/admin/integration/manage/BigDataSciencePlatformTest.java
/home/ahextech/subbarao/WorkSpace/Element_Maven/element_maven/Element/src/test/java/com/element/admin/integration/login/LoginTest.java
/home/ahextech/subbarao/WorkSpace/Element_Maven/element_maven/Element/src/test/java/com/element/admin/integration/creditcards/CreditCards.java
/home/ahextech/subbarao/WorkSpace/Element_Maven/element_maven/Element/src/test/java/com/element/admin/integration/act/AuditTrailTest.java
/home/ahextech/subbarao/WorkSpace/Element_Maven/element_maven/Element/src/test/java/com/element/admin/integration/enrich/EnrichTopPanelTest.java
/home/ahextech/subbarao/WorkSpace/Element_Maven/element_maven/Element/src/test/java/com/element/admin/integration/enrich/EnrichPage.java
/home/ahextech/subbarao/WorkSpace/Element_Maven/element_maven/Element/src/test/java/com/element/admin/integration/manage/SourceManagementTest.java
/home/ahextech/subbarao/WorkSpace/Element_Maven/element_maven/Element/src/test/java/com/element/admin/integration/act/AuditTrailPage.java
/home/ahextech/subbarao/WorkSpace/Element_Maven/element_maven/Element/src/test/java/com/element/admin/integration/enrich/ComplianceTest.java
/home/ahextech/subbarao/WorkSpace/Element_Maven/element_maven/Element/src/test/java/com/element/admin/integration/common/Login.java
/home/ahextech/subbarao/WorkSpace/Element_Maven/element_maven/Element/src/test/java/com/element/admin/integration/shared/SharedPage.java
/home/ahextech/subbarao/WorkSpace/Element_Maven/element_maven/Element/src/test/java/com/element/admin/integration/predict/LeadGenerationPage.java
/home/ahextech/subbarao/WorkSpace/Element_Maven/element_maven/Element/src/test/java/com/element/admin/integration/common/Util.java
/home/ahextech/subbarao/WorkSpace/Element_Maven/element_maven/Element/src/test/java/com/element/admin/integration/risk/RiskPage.java
/home/ahextech/subbarao/WorkSpace/Element_Maven/element_maven/Element/src/test/java/com/element/admin/integration/common/ReadFromExcel.java
/home/ahextech/subbarao/WorkSpace/Element_Maven/element_maven/Element/src/test/java/com/element/admin/integration/financialcrime/FinancialCrimePage.java
/home/ahextech/subbarao/WorkSpace/Element_Maven/element_maven/Element/src/test/java/com/element/admin/integration/manage/DecisionScoringTest.java
/home/ahextech/subbarao/WorkSpace/Element_Maven/element_maven/Element/src/test/java/com/element/admin/integration/enrich/AdvanceSearchTest.java
/home/ahextech/subbarao/WorkSpace/Element_Maven/element_maven/Element/src/test/java/com/element/admin/integration/insurance/InsurancePage.java
/home/ahextech/subbarao/WorkSpace/Element_Maven/element_maven/Element/src/test/java/com/element/admin/integration/sociallistening/SocialListeningPage.java
/home/ahextech/subbarao/WorkSpace/Element_Maven/element_maven/Element/src/test/java/com/element/admin/integration/marketintelligence/MarketIntelligencePage.java
